Borusyak, Jaravel, and Spiess (2021) Estimator — did_imputation • did2s
…
You can run a static TWFE fixed effect model for a simple treatment indicator

did_imputation(data = df_hom, yname = "dep_var", gname = "g",
               tname = "year", idname = "unit")
#> # A tibble: 1 x 5
#>   term  estimate std.error conf.low conf.high
#>   <chr>    <dbl>     <dbl>    <dbl>     <dbl>
#> 1 treat     2.02    0.0324     1.96      2.09

Or you can use relative-treatment indicators to estimate an event study estimate

did_imputation(data = df_hom, yname = "dep_var", gname = "g",
               tname = "year", idname = "unit", horizon=TRUE)
#> # A tibble: 21 x 5
#>    term  estimate std.error conf.low conf.high
#>    <chr>    <dbl>     <dbl>    <dbl>     <dbl>
#>  1 0         2.12    0.0737     1.97      2.26
#>  2 1         1.86    0.0767     1.71      2.01
#>  3 2         1.99    0.0714     1.85      2.13
#>  4 3         2.00    0.0765     1.85      2.15
#>  5 4         1.95    0.0754     1.80      2.10
#>  6 5         2.04    0.0758     1.89      2.19
#>  7 6         2.03    0.0722     1.89      2.17
#>  8 7         2.03    0.0754     1.88      2.17
#>  9 8         1.98    0.0749     1.83      2.12
#> 10 9         2.12    0.0727     1.98      2.26
#> # … with 11 more rows
…
